Análisis de generación según fechas y comunidad
…
# 2. Cálculo del ratio y reordenamiento de factor
annual_ratio <- annual %>%
  left_join(superficies, by = "comunidad") %>%
  mutate(
    gen_por_km2 = annual_gen / superficie_km2,
    # reorder asciendente para que el mayor quede arriba
    comunidad    = fct_reorder(comunidad, gen_por_km2)
  )
print(annual_ratio)

## # A tibble: 32 × 5
##    comunidad     year annual_gen superficie_km2 gen_por_km2
##    <fct>        <dbl>      <dbl>          <dbl>       <dbl>
##  1 Andalucia     2023  63301564.          87599        723.
##  2 Andalucia     2024  60921464.          87599        695.
##  3 Aragon        2023  44182003.          47719        926.
##  4 Aragon        2024  43787431.          47719        918.
##  5 Asturias      2023  18220857.          10603       1718.
##  6 Asturias      2024  15550066.          10603       1467.
##  7 Cantabria     2023   1949285.           5321        366.
##  8 Cantabria     2024   1067426.           5321        201.
##  9 Castilayleon  2023  50630083.          94226        537.
## 10 Castilayleon  2024  54160970.          94226        575.
## # ℹ 22 more rows
…
